<?xml version="1.0" encoding="UTF-8" standalone="no"?>
<!-- Created with Inkscape (http://www.inkscape.org/) -->

<svg
   xmlns:dc="http://purl.org/dc/elements/1.1/"
   xmlns:cc="http://creativecommons.org/ns#"
   xmlns:rdf="http://www.w3.org/1999/02/22-rdf-syntax-ns#"
   xmlns:svg="http://www.w3.org/2000/svg"
   xmlns="http://www.w3.org/2000/svg"
   xmlns:sodipodi="http://sodipodi.sourceforge.net/DTD/sodipodi-0.dtd"
   xmlns:inkscape="http://www.inkscape.org/namespaces/inkscape"
   width="10cm"
   height="4.5cm"
   viewBox="0 0 354.33071 159.44881"
   id="svg2"
   version="1.1"
   inkscape:version="0.91 r13725"
   sodipodi:docname="bvarresadresserecherche.svg"
   inkscape:export-filename="/media/h4ck3r/GrosDisque/Fichiersdetravail/Projets_Libres/LIVRESENCOURS/manueldumo/images/bvarresadresserechercheNEW.png"
   inkscape:export-xdpi="300"
   inkscape:export-ydpi="300">
  <defs
     id="defs4" />
  <sodipodi:namedview
     id="base"
     pagecolor="#ffffff"
     bordercolor="#666666"
     borderopacity="1.0"
     inkscape:pageopacity="0.0"
     inkscape:pageshadow="2"
     inkscape:zoom="1.979899"
     inkscape:cx="-63.492363"
     inkscape:cy="87.769691"
     inkscape:document-units="px"
     inkscape:current-layer="layer1"
     showgrid="false"
     units="cm"
     inkscape:window-width="1920"
     inkscape:window-height="1026"
     inkscape:window-x="0"
     inkscape:window-y="0"
     inkscape:window-maximized="1"
     fit-margin-top="0.1"
     fit-margin-left="0.1"
     fit-margin-bottom="0.1"
     fit-margin-right="0.1"
     borderlayer="true" />
  <metadata
     id="metadata7">
    <rdf:RDF>
      <cc:Work
         rdf:about="">
        <dc:format>image/svg+xml</dc:format>
        <dc:type
           rdf:resource="http://purl.org/dc/dcmitype/StillImage" />
        <dc:title></dc:title>
      </cc:Work>
    </rdf:RDF>
  </metadata>
  <g
     inkscape:label="Calque 1"
     inkscape:groupmode="layer"
     id="layer1"
     transform="translate(-2.3897126,-893.18966)">
    <rect
       style="opacity:1;fill:#ffffff;fill-opacity:1;stroke:none;stroke-width:1.5;stroke-linejoin:round;stroke-miterlimit:4;stroke-dasharray:none;stroke-dashoffset:0;stroke-opacity:1"
       id="rect4311"
       width="402.04071"
       height="232.33508"
       x="-28.419939"
       y="857.67902"
       ry="0" />
    <rect
       style="opacity:1;fill:#ffffff;fill-opacity:1;stroke:#000000;stroke-width:1.5;stroke-linejoin:round;stroke-miterlimit:4;stroke-dasharray:none;stroke-dashoffset:0;stroke-opacity:1"
       id="rect4136"
       width="275.41129"
       height="140.53992"
       x="7.2331295"
       y="901.55634"
       ry="7.3968387" />
    <g
       id="g4189"
       transform="matrix(0.49277059,-0.50136492,0.50425405,0.48994726,95.304186,773.71156)">
      <path
         id="rect4148-3"
         d="m 37.079917,306.64048 c -0.95342,0 -1.72193,0.76699 -1.72193,1.72041 l 0,4.42652 -4.37632,0 c -0.95343,0 -1.72042,0.76699 -1.72042,1.72041 0,0.95342 0.76699,1.72041 1.72042,1.72041 l 4.37632,0 0,4.62275 c 0,0.95341 0.76851,1.72041 1.72193,1.72041 0.95341,0 1.72041,-0.767 1.72041,-1.72041 l 0,-4.62275 4.67142,0 c 0.95342,0 1.72041,-0.76699 1.72041,-1.72041 0,-0.95342 -0.76699,-1.72041 -1.72041,-1.72041 l -4.67142,0 0,-4.42652 c 0,-0.95342 -0.767,-1.72041 -1.72041,-1.72041 z"
         style="opacity:1;fill:#000000;fill-opacity:1;stroke:none;stroke-width:3.54330707;stroke-linejoin:round;stroke-miterlimit:4;stroke-dasharray:none;stroke-dashoffset:0;stroke-opacity:1"
         inkscape:connector-curvature="0" />
      <rect
         style="opacity:1;fill:#000000;fill-opacity:1;stroke:none;stroke-width:3.54330707;stroke-linejoin:round;stroke-miterlimit:4;stroke-dasharray:none;stroke-dashoffset:0;stroke-opacity:1"
         id="rect4192"
         width="13.768497"
         height="3.0596659"
         x="227.25305"
         y="196.33365"
         transform="matrix(0.69891616,0.71520361,-0.71520361,0.69891616,0,0)"
         ry="1.529833" />
      <flowRoot
         xml:space="preserve"
         id="flowRoot4194"
         style="font-style:normal;font-weight:normal;font-size:40px;line-height:125%;font-family:sans-serif;letter-spacing:0px;word-spacing:0px;fill:#000000;fill-opacity:1;stroke:none;stroke-width:1px;stroke-linecap:butt;stroke-linejoin:miter;stroke-opacity:1"
         transform="matrix(0.69891616,0.71520361,-0.71520361,0.69891616,118.99393,338.67144)"><flowRegion
           id="flowRegion4196"><rect
             id="rect4198"
             width="145.46196"
             height="150.00766"
             x="43.941635"
             y="98.140587" /></flowRegion><flowPara
           id="flowPara4200" /></flowRoot>      <text
         xml:space="preserve"
         style="font-style:normal;font-weight:normal;font-size:40px;line-height:125%;font-family:sans-serif;letter-spacing:0px;word-spacing:0px;fill:#000000;fill-opacity:1;stroke:none;stroke-width:1px;stroke-linecap:butt;stroke-linejoin:miter;stroke-opacity:1"
         x="252.14975"
         y="141.14725"
         id="text4218"
         sodipodi:linespacing="125%"
         transform="matrix(0.69891616,0.71520361,-0.71520361,0.69891616,0,0)"><tspan
           sodipodi:role="line"
           id="tspan4220"
           x="252.14975"
           y="141.14725" /></text>
    </g>
    <text
       xml:space="preserve"
       style="font-style:normal;font-weight:normal;font-size:8.96582794px;line-height:125%;font-family:sans-serif;letter-spacing:0px;word-spacing:0px;fill:#000000;fill-opacity:1;stroke:none;stroke-width:1px;stroke-linecap:butt;stroke-linejoin:miter;stroke-opacity:1"
       x="136.18434"
       y="910.79767"
       id="text4620"
       sodipodi:linespacing="125%"><tspan
         sodipodi:role="line"
         id="tspan4622"
         x="136.18434"
         y="910.79767"
         style="font-style:italic;font-variant:normal;font-weight:normal;font-stretch:normal;font-family:sans-serif;-inkscape-font-specification:'sans-serif Italic'">Firefox</tspan></text>
    <circle
       style="opacity:1;fill:#b3b3b3;fill-opacity:1;stroke:none;stroke-width:1.5;stroke-linejoin:round;stroke-miterlimit:4;stroke-dasharray:none;stroke-dashoffset:0;stroke-opacity:1"
       id="path4626"
       cx="15.923986"
       cy="921.99237"
       r="6.4226847" />
    <text
       xml:space="preserve"
       style="font-style:normal;font-weight:normal;font-size:14.93347645px;line-height:125%;font-family:sans-serif;letter-spacing:0px;word-spacing:0px;fill:#000000;fill-opacity:1;stroke:none;stroke-width:1px;stroke-linecap:butt;stroke-linejoin:miter;stroke-opacity:1"
       x="12.323281"
       y="800.49127"
       id="text4628"
       sodipodi:linespacing="125%"
       transform="scale(0.86334276,1.1582885)"><tspan
         sodipodi:role="line"
         id="tspan4630"
         x="12.323281"
         y="800.49127">←</tspan></text>
    <rect
       style="opacity:1;fill:#b3b3b3;fill-opacity:1;stroke:#000000;stroke-width:0.74801564;stroke-linejoin:round;stroke-miterlimit:4;stroke-dasharray:none;stroke-dashoffset:0;stroke-opacity:1"
       id="rect4652"
       width="158.86427"
       height="11.754532"
       x="38.629631"
       y="916.07892"
       ry="0.4823454" />
    <text
       xml:space="preserve"
       style="font-style:normal;font-weight:normal;font-size:9.08228874px;line-height:125%;font-family:sans-serif;letter-spacing:0px;word-spacing:0px;fill:#000000;fill-opacity:1;stroke:none;stroke-width:1px;stroke-linecap:butt;stroke-linejoin:miter;stroke-opacity:1"
       x="25.740149"
       y="1505.0288"
       id="text4632"
       sodipodi:linespacing="125%"
       transform="scale(1.6283157,0.61413153)"><tspan
         sodipodi:role="line"
         id="tspan4634"
         x="25.740149"
         y="1505.0288">i</tspan></text>
    <circle
       style="opacity:1;fill:none;fill-opacity:1;stroke:#000000;stroke-width:0.4798272;stroke-linejoin:round;stroke-miterlimit:4;stroke-dasharray:none;stroke-dashoffset:0;stroke-opacity:1"
       id="path4636"
       cx="43.962074"
       cy="922.21466"
       r="3.0132008" />
    <rect
       style="opacity:1;fill:none;fill-opacity:1;stroke:#000000;stroke-width:0.66186398;stroke-linejoin:round;stroke-miterlimit:4;stroke-dasharray:none;stroke-dashoffset:0;stroke-opacity:1"
       id="rect4638"
       width="3.3842049"
       height="3.7979131"
       x="49.888618"
       y="919.6955"
       ry="1.8989565" />
    <rect
       style="opacity:1;fill:#000000;fill-opacity:1;stroke:none;stroke-width:1.5;stroke-linejoin:round;stroke-miterlimit:4;stroke-dasharray:none;stroke-dashoffset:0;stroke-opacity:1"
       id="rect4640"
       width="4.9645014"
       height="3.9302301"
       x="49.077782"
       y="921.49103"
       ry="0" />
    <text
       xml:space="preserve"
       style="font-style:normal;font-weight:normal;font-size:8.53724861px;line-height:125%;font-family:sans-serif;letter-spacing:0px;word-spacing:0px;fill:#000000;fill-opacity:1;stroke:none;stroke-width:1px;stroke-linecap:butt;stroke-linejoin:miter;stroke-opacity:1"
       x="60.309349"
       y="924.51678"
       id="text4642"
       sodipodi:linespacing="125%"><tspan
         sodipodi:role="line"
         id="tspan4644"
         x="60.309349"
         y="924.51678">https://zoozle.com</tspan></text>
    <rect
       style="opacity:1;fill:#b3b3b3;fill-opacity:1;stroke:#000000;stroke-width:0.74801564;stroke-linejoin:round;stroke-miterlimit:4;stroke-dasharray:none;stroke-dashoffset:0;stroke-opacity:1"
       id="rect4652-3"
       width="54.802193"
       height="11.617661"
       x="199.63446"
       y="916.25262"
       ry="0.47672889" />
    <circle
       style="opacity:1;fill:none;fill-opacity:1;stroke:#000000;stroke-width:0.95974487;stroke-linejoin:round;stroke-miterlimit:4;stroke-dasharray:none;stroke-dashoffset:0;stroke-opacity:1"
       id="path4648"
       cx="204.48741"
       cy="920.82648"
       r="2.4611845" />
    <rect
       style="opacity:1;fill:#000000;fill-opacity:1;stroke:none;stroke-width:1.43700004;stroke-linejoin:round;stroke-miterlimit:4;stroke-dasharray:none;stroke-dashoffset:0;stroke-opacity:1"
       id="rect4650"
       width="5.3249464"
       height="1.2920154"
       x="702.23181"
       y="631.74072"
       ry="0.64600772"
       transform="matrix(0.81513972,0.5792644,-0.5792644,0.81513972,0,0)" />
    <path
       sodipodi:type="star"
       style="opacity:1;fill:#000000;fill-opacity:1;stroke:none;stroke-width:1.5;stroke-linejoin:round;stroke-miterlimit:4;stroke-dasharray:none;stroke-dashoffset:0;stroke-opacity:1"
       id="path4646"
       sodipodi:sides="5"
       sodipodi:cx="190.54188"
       sodipodi:cy="922.09859"
       sodipodi:r1="4.2719345"
       sodipodi:r2="2.1359675"
       sodipodi:arg1="1.3633001"
       sodipodi:arg2="1.9916186"
       inkscape:flatsided="false"
       inkscape:rounded="0"
       inkscape:randomized="0"
       d="m 191.42195,926.27887 -1.75263,-2.23069 -2.83118,0.17917 1.57992,-2.35618 -1.04528,-2.63724 2.72907,0.77449 2.18517,-1.80907 0.10674,2.83483 2.39578,1.51919 -2.6631,0.97752 z"
       inkscape:transform-center-x="-0.27194993"
       inkscape:transform-center-y="0.14047942" />
    <rect
       style="opacity:1;fill:#b3b3b3;fill-opacity:1;stroke:#000000;stroke-width:0.74801564;stroke-linejoin:round;stroke-miterlimit:4;stroke-dasharray:none;stroke-dashoffset:0;stroke-opacity:1"
       id="rect4669"
       width="1.1576433"
       height="11.576433"
       x="182.5336"
       y="916.25702"
       ry="0.57882166" />
    <circle
       style="opacity:1;fill:#b3b3b3;fill-opacity:1;stroke:none;stroke-width:1.5;stroke-linejoin:round;stroke-miterlimit:4;stroke-dasharray:none;stroke-dashoffset:0;stroke-opacity:1"
       id="path4626-6"
       cx="-30.280584"
       cy="922.11835"
       r="6.4226847"
       transform="scale(-1,1)" />
    <text
       xml:space="preserve"
       style="font-style:normal;font-weight:normal;font-size:14.93347645px;line-height:125%;font-family:sans-serif;letter-spacing:0px;word-spacing:0px;fill:#000000;fill-opacity:1;stroke:none;stroke-width:1px;stroke-linecap:butt;stroke-linejoin:miter;stroke-opacity:1"
       x="-41.194939"
       y="800.59998"
       id="text4628-7"
       sodipodi:linespacing="125%"
       transform="scale(-0.86334276,1.1582885)"><tspan
         sodipodi:role="line"
         id="tspan4630-5"
         x="-41.194939"
         y="800.59998">←</tspan></text>
    <rect
       style="opacity:1;fill:#ffffff;fill-opacity:1;stroke:#000000;stroke-width:1.22294474;stroke-linejoin:round;stroke-miterlimit:4;stroke-dasharray:none;stroke-dashoffset:0;stroke-opacity:1"
       id="rect4652-3-3"
       width="161.2717"
       height="21.729027"
       x="56.31353"
       y="991.18048"
       ry="0.89164716" />
    <flowRoot
       xml:space="preserve"
       id="flowRoot4707"
       style="font-style:normal;font-weight:normal;font-size:40px;line-height:125%;font-family:sans-serif;letter-spacing:0px;word-spacing:0px;fill:#000000;fill-opacity:1;stroke:none;stroke-width:1px;stroke-linecap:butt;stroke-linejoin:miter;stroke-opacity:1"
       transform="matrix(0.71049554,0,0,1.0716307,108.46584,245.31603)"><flowRegion
         id="flowRegion4709"><rect
           id="rect4711"
           width="291.42902"
           height="56.568569"
           x="-4.0406103"
           y="658.77527" /></flowRegion><flowPara
         id="flowPara4713"
         style="font-style:normal;font-variant:normal;font-weight:normal;font-stretch:normal;font-family:Dyuthi;-inkscape-font-specification:Dyuthi">zoozle</flowPara></flowRoot>    <text
       xml:space="preserve"
       style="font-style:normal;font-weight:normal;font-size:7.55886984px;line-height:125%;font-family:sans-serif;letter-spacing:0px;word-spacing:0px;fill:#666666;fill-opacity:1;stroke:none;stroke-width:1px;stroke-linecap:butt;stroke-linejoin:miter;stroke-opacity:1"
       x="81.963905"
       y="1021.1008"
       id="text4715"
       sodipodi:linespacing="125%"><tspan
         sodipodi:role="line"
         id="tspan4717"
         x="81.963905"
         y="1021.1008">Le moteur qui n'existe pas</tspan></text>
    <rect
       style="opacity:1;fill:#000000;fill-opacity:1;stroke:none;stroke-width:1.5;stroke-linejoin:round;stroke-miterlimit:4;stroke-dasharray:none;stroke-dashoffset:0;stroke-opacity:1"
       id="rect4727"
       width="80.372307"
       height="37.903419"
       x="274.28784"
       y="941.9682"
       ry="0" />
    <flowRoot
       xml:space="preserve"
       id="flowRoot4719"
       style="font-style:normal;font-weight:normal;font-size:15.32452393px;line-height:125%;font-family:sans-serif;letter-spacing:0px;word-spacing:0px;fill:#ffffff;fill-opacity:1;stroke:none;stroke-width:1px;stroke-linecap:butt;stroke-linejoin:miter;stroke-opacity:1"
       transform="translate(6.4831355,900.80637)"><flowRegion
         id="flowRegion4721"><rect
           id="rect4723"
           width="113.49599"
           height="45.74176"
           x="271.28473"
           y="39.989071"
           style="fill:#ffffff" /></flowRegion><flowPara
         id="flowPara4725">Barre</flowPara><flowPara
         id="flowPara4729">d'adresse</flowPara></flowRoot>    <rect
       style="opacity:1;fill:#000000;fill-opacity:1;stroke:none;stroke-width:1.5;stroke-linejoin:round;stroke-miterlimit:4;stroke-dasharray:none;stroke-dashoffset:0;stroke-opacity:1"
       id="rect4727-7"
       width="81.887535"
       height="36.587311"
       x="274.00275"
       y="988.75677"
       ry="0" />
    <flowRoot
       xml:space="preserve"
       id="flowRoot4719-8"
       style="font-style:normal;font-weight:normal;font-size:14.79241562px;line-height:125%;font-family:sans-serif;letter-spacing:0px;word-spacing:0px;fill:#ffffff;fill-opacity:1;stroke:none;stroke-width:1px;stroke-linecap:butt;stroke-linejoin:miter;stroke-opacity:1"
       transform="translate(6.4831355,900.80637)"><flowRegion
         id="flowRegion4721-5"><rect
           id="rect4723-8"
           width="98.07251"
           height="44.727608"
           x="271.16586"
           y="87.105423"
           style="fill:#ffffff" /></flowRegion><flowPara
         id="flowPara4729-8">Barre de recherche</flowPara></flowRoot>    <path
       style="fill:none;fill-rule:evenodd;stroke:#000000;stroke-width:1.5;stroke-linecap:butt;stroke-linejoin:miter;stroke-miterlimit:4;stroke-dasharray:none;stroke-opacity:1"
       d="m 275.79652,960.38637 -125,-29.2857"
       id="path4763"
       inkscape:connector-curvature="0" />
    <path
       style="fill:none;fill-rule:evenodd;stroke:#000000;stroke-width:1.5;stroke-linecap:butt;stroke-linejoin:miter;stroke-miterlimit:4;stroke-dasharray:none;stroke-opacity:1"
       d="m 279.0108,1008.2436 -57.85714,-3.2143 3.66072,-2.5"
       id="path4765"
       inkscape:connector-curvature="0" />
    <path
       style="fill:none;fill-rule:evenodd;stroke:#000000;stroke-width:1px;stroke-linecap:butt;stroke-linejoin:miter;stroke-opacity:1"
       d="m 219.68044,1005.2525 3.57143,2.2321"
       id="path4767"
       inkscape:connector-curvature="0" />
    <path
       style="fill:none;fill-rule:evenodd;stroke:#000000;stroke-width:1.5;stroke-linecap:butt;stroke-linejoin:miter;stroke-miterlimit:4;stroke-dasharray:none;stroke-opacity:1"
       d="m 151.17554,931.14067 3.97748,-1.6415"
       id="path4769"
       inkscape:connector-curvature="0" />
    <path
       style="fill:none;fill-rule:evenodd;stroke:#000000;stroke-width:1.5;stroke-linecap:butt;stroke-linejoin:miter;stroke-miterlimit:4;stroke-dasharray:none;stroke-opacity:1"
       d="m 151.14397,931.42477 1.79934,2.336"
       id="path4771"
       inkscape:connector-curvature="0" />
  </g>
</svg>
