<?xml version="1.0" encoding="UTF-8" standalone="no"?>
<!-- Created with Inkscape (http://www.inkscape.org/) -->

<svg
   xmlns:dc="http://purl.org/dc/elements/1.1/"
   xmlns:cc="http://creativecommons.org/ns#"
   xmlns:rdf="http://www.w3.org/1999/02/22-rdf-syntax-ns#"
   xmlns:svg="http://www.w3.org/2000/svg"
   xmlns="http://www.w3.org/2000/svg"
   xmlns:sodipodi="http://sodipodi.sourceforge.net/DTD/sodipodi-0.dtd"
   xmlns:inkscape="http://www.inkscape.org/namespaces/inkscape"
   width="10cm"
   height="5cm"
   viewBox="0 0 354.33071 177.16533"
   id="svg2"
   version="1.1"
   inkscape:version="0.91 r13725"
   sodipodi:docname="configthunderbird3.svg"
   inkscape:export-filename="/media/h4ck3r/GrosDisque/Fichiersdetravail/Projets_Libres/LIVRESENCOURS/manueldumo/images/configthunderbird3NEW.png"
   inkscape:export-xdpi="300"
   inkscape:export-ydpi="300">
  <defs
     id="defs4" />
  <sodipodi:namedview
     id="base"
     pagecolor="#ffffff"
     bordercolor="#666666"
     borderopacity="1.0"
     inkscape:pageopacity="0.0"
     inkscape:pageshadow="2"
     inkscape:zoom="1.4"
     inkscape:cx="-111.56245"
     inkscape:cy="217.20226"
     inkscape:document-units="px"
     inkscape:current-layer="layer1"
     showgrid="false"
     units="cm"
     inkscape:window-width="1920"
     inkscape:window-height="1026"
     inkscape:window-x="0"
     inkscape:window-y="0"
     inkscape:window-maximized="1"
     fit-margin-top="0.1"
     fit-margin-left="0.1"
     fit-margin-bottom="0.1"
     fit-margin-right="0.1"
     borderlayer="true" />
  <metadata
     id="metadata7">
    <rdf:RDF>
      <cc:Work
         rdf:about="">
        <dc:format>image/svg+xml</dc:format>
        <dc:type
           rdf:resource="http://purl.org/dc/dcmitype/StillImage" />
        <dc:title></dc:title>
      </cc:Work>
    </rdf:RDF>
  </metadata>
  <g
     inkscape:label="Calque 1"
     inkscape:groupmode="layer"
     id="layer1"
     transform="translate(-2.3897126,-875.47312)">
    <rect
       style="opacity:1;fill:#ffffff;fill-opacity:1;stroke:none;stroke-width:1.5;stroke-linejoin:round;stroke-miterlimit:4;stroke-dasharray:none;stroke-dashoffset:0;stroke-opacity:1"
       id="rect4281"
       width="387.14285"
       height="202.85715"
       x="-9.7531443"
       y="862.63843" />
    <rect
       style="opacity:1;fill:#ffffff;fill-opacity:1;stroke:#000000;stroke-width:1.5;stroke-linejoin:round;stroke-miterlimit:4;stroke-dasharray:none;stroke-dashoffset:0;stroke-opacity:1"
       id="rect4136"
       width="349.01358"
       height="169.56335"
       x="4.8300309"
       y="878.77887"
       ry="8.924387" />
    <g
       id="g4189"
       transform="matrix(0.50209234,-0.51084925,0.51379304,0.4992156,158.61186,751.90381)">
      <path
         id="rect4148-3"
         d="m 37.079917,306.64048 c -0.95342,0 -1.72193,0.76699 -1.72193,1.72041 l 0,4.42652 -4.37632,0 c -0.95343,0 -1.72042,0.76699 -1.72042,1.72041 0,0.95342 0.76699,1.72041 1.72042,1.72041 l 4.37632,0 0,4.62275 c 0,0.95341 0.76851,1.72041 1.72193,1.72041 0.95341,0 1.72041,-0.767 1.72041,-1.72041 l 0,-4.62275 4.67142,0 c 0.95342,0 1.72041,-0.76699 1.72041,-1.72041 0,-0.95342 -0.76699,-1.72041 -1.72041,-1.72041 l -4.67142,0 0,-4.42652 c 0,-0.95342 -0.767,-1.72041 -1.72041,-1.72041 z"
         style="opacity:1;fill:#000000;fill-opacity:1;stroke:none;stroke-width:3.54330707;stroke-linejoin:round;stroke-miterlimit:4;stroke-dasharray:none;stroke-dashoffset:0;stroke-opacity:1"
         inkscape:connector-curvature="0" />
      <flowRoot
         xml:space="preserve"
         id="flowRoot4194"
         style="font-style:normal;font-weight:normal;font-size:40px;line-height:125%;font-family:sans-serif;letter-spacing:0px;word-spacing:0px;fill:#000000;fill-opacity:1;stroke:none;stroke-width:1px;stroke-linecap:butt;stroke-linejoin:miter;stroke-opacity:1"
         transform="matrix(0.69891616,0.71520361,-0.71520361,0.69891616,118.99393,338.67144)"><flowRegion
           id="flowRegion4196"><rect
             id="rect4198"
             width="145.46196"
             height="150.00766"
             x="43.941635"
             y="98.140587" /></flowRegion><flowPara
           id="flowPara4200" /></flowRoot>      <text
         xml:space="preserve"
         style="font-style:normal;font-weight:normal;font-size:40px;line-height:125%;font-family:sans-serif;letter-spacing:0px;word-spacing:0px;fill:#000000;fill-opacity:1;stroke:none;stroke-width:1px;stroke-linecap:butt;stroke-linejoin:miter;stroke-opacity:1"
         x="252.14975"
         y="141.14725"
         id="text4218"
         sodipodi:linespacing="125%"
         transform="matrix(0.69891616,0.71520361,-0.71520361,0.69891616,0,0)"><tspan
           sodipodi:role="line"
           id="tspan4220"
           x="252.14975"
           y="141.14725" /></text>
    </g>
    <text
       xml:space="preserve"
       style="font-style:normal;font-weight:normal;font-size:9.1354351px;line-height:125%;font-family:sans-serif;letter-spacing:0px;word-spacing:0px;fill:#000000;fill-opacity:1;stroke:none;stroke-width:1px;stroke-linecap:butt;stroke-linejoin:miter;stroke-opacity:1"
       x="74.251953"
       y="888.82269"
       id="text4620"
       sodipodi:linespacing="125%"><tspan
         sodipodi:role="line"
         id="tspan4622"
         x="74.251953"
         y="888.82269"
         style="font-style:italic;font-variant:normal;font-weight:normal;font-stretch:normal;font-family:sans-serif;-inkscape-font-specification:'sans-serif Italic'">Paramètres des comptes Courrier et Groupes</tspan></text>
    <flowRoot
       xml:space="preserve"
       id="flowRoot4532"
       style="font-style:normal;font-weight:normal;font-size:40px;line-height:125%;font-family:sans-serif;letter-spacing:0px;word-spacing:0px;fill:#000000;fill-opacity:1;stroke:none;stroke-width:1px;stroke-linecap:butt;stroke-linejoin:miter;stroke-opacity:1"
       transform="translate(2.3897126,875.4731)"><flowRegion
         id="flowRegion4534"><rect
           id="rect4536"
           width="387.39349"
           height="176.77669"
           x="-249.50768"
           y="76.655182" /></flowRegion><flowPara
         id="flowPara4560" /></flowRoot>    <rect
       style="opacity:1;fill:#e6e6e6;fill-opacity:1;stroke:#000000;stroke-width:0.60675293;stroke-linejoin:round;stroke-miterlimit:4;stroke-dasharray:none;stroke-dashoffset:0;stroke-opacity:1"
       id="rect4689"
       width="75.293205"
       height="8.0774174"
       x="5.8575635"
       y="984.24078"
       ry="4.0387087" />
    <flowRoot
       xml:space="preserve"
       id="flowRoot4639"
       style="font-style:normal;font-weight:normal;font-size:40px;line-height:125%;font-family:sans-serif;letter-spacing:0px;word-spacing:0px;fill:#000000;fill-opacity:1;stroke:none;stroke-width:1px;stroke-linecap:butt;stroke-linejoin:miter;stroke-opacity:1"
       transform="matrix(0.61413713,0,0,0.61413713,170.57696,841.26113)"><flowRegion
         id="flowRegion4641"><rect
           id="rect4643"
           width="199.50513"
           height="174.75641"
           x="-265.16504"
           y="94.837929" /></flowRegion><flowPara
         id="flowPara4645"
         style="font-style:normal;font-variant:normal;font-weight:bold;font-stretch:normal;font-size:10px;font-family:sans-serif;-inkscape-font-specification:'sans-serif Bold'">Jean.dupont@youkoulele.fr</flowPara><flowPara
         id="flowPara4647"
         style="font-size:10px">   Paramètre serveur</flowPara><flowPara
         id="flowPara4649"
         style="font-size:10px">   Copies et dossiers</flowPara><flowPara
         style="font-size:10px"
         id="flowPara4671">   Rédaction et adressage</flowPara><flowPara
         style="font-size:10px"
         id="flowPara4673">   Paramètres des indésirables</flowPara><flowPara
         style="font-size:10px"
         id="flowPara4675">   Synchronisation et espace disque</flowPara><flowPara
         style="font-size:10px"
         id="flowPara4677">   Accusés de réceptions</flowPara><flowPara
         style="font-size:10px"
         id="flowPara4679">   Sécurité</flowPara><flowPara
         style="font-size:10px"
         id="flowPara4681">Dossiers locaux</flowPara><flowPara
         style="font-size:10px"
         id="flowPara4683">   Paramètres des indésirables</flowPara><flowPara
         style="font-size:10px"
         id="flowPara4685">   Espace disque</flowPara><flowPara
         style="font-size:10px"
         id="flowPara4687">Serveur sortant (SMTP)</flowPara><flowPara
         id="flowPara4651"
         style="font-size:10px" /><flowPara
         id="flowPara4653"
         style="font-size:10px" /><flowPara
         id="flowPara4655"
         style="font-size:10px" /><flowPara
         id="flowPara4657"
         style="font-size:10px" /><flowPara
         id="flowPara4659"
         style="font-size:10px" /><flowPara
         id="flowPara4661"
         style="font-size:10px" /><flowPara
         id="flowPara4663"
         style="font-size:10px" /><flowPara
         id="flowPara4665"
         style="font-size:10px" /><flowPara
         id="flowPara4667"
         style="font-size:10px" /><flowPara
         id="flowPara4669"
         style="font-size:10px" /></flowRoot>    <rect
       style="opacity:1;fill:#e6e6e6;fill-opacity:1;stroke:#000000;stroke-width:0.77057517;stroke-linejoin:round;stroke-miterlimit:4;stroke-dasharray:none;stroke-dashoffset:0;stroke-opacity:1"
       id="rect4689-2"
       width="105.20155"
       height="9.3242197"
       x="121.13607"
       y="898.59998"
       ry="4.6621099" />
    <path
       style="fill:none;fill-rule:evenodd;stroke:#000000;stroke-width:1px;stroke-linecap:butt;stroke-linejoin:miter;stroke-opacity:1"
       d="m 118.05217,896.82243 0,149.50267"
       id="path4867"
       inkscape:connector-curvature="0" />
    <flowRoot
       xml:space="preserve"
       id="flowRoot5140"
       style="font-style:normal;font-weight:normal;font-size:40px;line-height:125%;font-family:sans-serif;letter-spacing:0px;word-spacing:0px;fill:#000000;fill-opacity:1;stroke:none;stroke-width:1px;stroke-linecap:butt;stroke-linejoin:miter;stroke-opacity:1"
       transform="matrix(0.71406421,0,0,0.71406421,155.84103,753.10395)"><flowRegion
         id="flowRegion5142"><rect
           id="rect5144"
           width="314.26883"
           height="116.27584"
           x="-48.487324"
           y="222.11714" /></flowRegion><flowPara
         id="flowPara5146"
         style="font-size:8.75px">Lorsque vous gérez vos identités, vous pouvez utiliser un serveur de cette liste en le sélectionnant comme Serveur sortant (SMTP), ou utiliser le serveur par défaut de cette liste en sélectionnant « Utiliser le serveur par défaut ».</flowPara></flowRoot>    <flowRoot
       xml:space="preserve"
       id="flowRoot5148"
       style="font-style:normal;font-weight:normal;font-size:12.20619011px;line-height:125%;font-family:sans-serif;letter-spacing:0px;word-spacing:0px;fill:#000000;fill-opacity:1;stroke:none;stroke-width:1px;stroke-linecap:butt;stroke-linejoin:miter;stroke-opacity:1"
       transform="matrix(0.64439429,0,0,0.64439429,212.26752,294.5258)"><flowRegion
         id="flowRegion5150"><rect
           id="rect5152"
           width="112.20403"
           height="20.652941"
           x="-134.00603"
           y="936.98004" /></flowRegion><flowPara
         id="flowPara5154"
         style="font-style:normal;font-variant:normal;font-weight:bold;font-stretch:normal;font-family:sans-serif;-inkscape-font-specification:'sans-serif Bold'">Serveur SMTP</flowPara></flowRoot>    <flowRoot
       xml:space="preserve"
       id="flowRoot5156"
       style="font-style:normal;font-weight:normal;font-size:13.98486042px;line-height:125%;font-family:sans-serif;letter-spacing:0px;word-spacing:0px;fill:#000000;fill-opacity:1;stroke:none;stroke-width:1px;stroke-linecap:butt;stroke-linejoin:miter;stroke-opacity:1"
       transform="matrix(0.57973965,0,0,0.57973965,352.80907,344.57598)"><flowRegion
         id="flowRegion5158"><rect
           id="rect5160"
           width="129.61378"
           height="74.519089"
           x="-138.82874"
           y="1052.2378" /></flowRegion><flowPara
         id="flowPara5162"
         style="text-align:center;text-anchor:middle">Ajouter</flowPara><flowPara
         id="flowPara5166"
         style="text-align:center;text-anchor:middle">Modifier</flowPara><flowPara
         id="flowPara5164"
         style="text-align:center;text-anchor:middle">Supprimer</flowPara><flowPara
         id="flowPara5168"
         style="text-align:center;text-anchor:middle">Utiliser par défaut</flowPara></flowRoot>    <rect
       style="opacity:1;fill:none;fill-opacity:1;stroke:#000000;stroke-width:0.85071248;stroke-linejoin:round;stroke-miterlimit:4;stroke-dasharray:none;stroke-dashoffset:0;stroke-opacity:1"
       id="rect4280-27-6-2-3-5-7"
       width="76.800926"
       height="9.4344082"
       x="271.5556"
       y="985.99487"
       ry="0" />
    <rect
       style="opacity:1;fill:none;fill-opacity:1;stroke:#000000;stroke-width:0.85071248;stroke-linejoin:round;stroke-miterlimit:4;stroke-dasharray:none;stroke-dashoffset:0;stroke-opacity:1"
       id="rect4280-27-6-2-3-5-7-7"
       width="76.800926"
       height="9.4344082"
       x="271.40329"
       y="975.59589"
       ry="0" />
    <rect
       style="opacity:1;fill:none;fill-opacity:1;stroke:#000000;stroke-width:0.85071248;stroke-linejoin:round;stroke-miterlimit:4;stroke-dasharray:none;stroke-dashoffset:0;stroke-opacity:1"
       id="rect4280-27-6-2-3-5-7-1"
       width="76.800926"
       height="9.4344082"
       x="271.31277"
       y="965.22131"
       ry="0" />
    <rect
       style="opacity:1;fill:none;fill-opacity:1;stroke:#000000;stroke-width:0.85071248;stroke-linejoin:round;stroke-miterlimit:4;stroke-dasharray:none;stroke-dashoffset:0;stroke-opacity:1"
       id="rect4280-27-6-2-3-5-7-15"
       width="76.800926"
       height="9.4344082"
       x="271.35727"
       y="954.81573"
       ry="0" />
    <rect
       style="opacity:1;fill:#ffffff;fill-opacity:1;stroke:#000000;stroke-width:1;stroke-linejoin:round;stroke-miterlimit:4;stroke-dasharray:none;stroke-dashoffset:0;stroke-opacity:1"
       id="rect5212"
       width="145.71428"
       height="68.214287"
       x="123.104"
       y="946.92419" />
    <rect
       style="opacity:1;fill:#cccccc;fill-opacity:1;stroke:none;stroke-width:1;stroke-linejoin:round;stroke-miterlimit:4;stroke-dasharray:none;stroke-dashoffset:0;stroke-opacity:1"
       id="rect5222"
       width="142.85715"
       height="8.5714293"
       x="123.81829"
       y="948.35272" />
    <flowRoot
       xml:space="preserve"
       id="flowRoot5214"
       style="font-style:normal;font-weight:normal;font-size:40px;line-height:125%;font-family:sans-serif;letter-spacing:0px;word-spacing:0px;fill:#000000;fill-opacity:1;stroke:none;stroke-width:1px;stroke-linecap:butt;stroke-linejoin:miter;stroke-opacity:1"
       transform="matrix(0.1654792,0,0,0.1654792,118.70211,914.79441)"><flowRegion
         id="flowRegion5216"><rect
           id="rect5218"
           width="872.1864"
           height="66.50396"
           x="40"
           y="203.95108" /></flowRegion><flowPara
         id="flowPara5220">jean.dupont ­— mail.youkoulele.fr (Défaut)</flowPara></flowRoot>  </g>
</svg>
