<?xml version="1.0" encoding="UTF-8" standalone="no"?>
<!-- Created with Inkscape (http://www.inkscape.org/) -->

<svg
   xmlns:dc="http://purl.org/dc/elements/1.1/"
   xmlns:cc="http://creativecommons.org/ns#"
   xmlns:rdf="http://www.w3.org/1999/02/22-rdf-syntax-ns#"
   xmlns:svg="http://www.w3.org/2000/svg"
   xmlns="http://www.w3.org/2000/svg"
   xmlns:sodipodi="http://sodipodi.sourceforge.net/DTD/sodipodi-0.dtd"
   xmlns:inkscape="http://www.inkscape.org/namespaces/inkscape"
   width="210mm"
   height="73mm"
   viewBox="0 0 744.09449 258.66134"
   id="svg2"
   version="1.1"
   inkscape:version="0.91 r13725"
   sodipodi:docname="pgpfonctionnement.svg"
   inkscape:export-filename="/home/h4ck3r/Documents/manueldunovice/images/pgpfonctionnement.png"
   inkscape:export-xdpi="336"
   inkscape:export-ydpi="336">
  <defs
     id="defs4">
    <inkscape:perspective
       sodipodi:type="inkscape:persp3d"
       inkscape:vp_x="-20.924681 : 1436.1006 : 1"
       inkscape:vp_y="1238.1456 : 183.78396 : 0"
       inkscape:vp_z="2.7616793 : 1022.8622 : 1"
       inkscape:persp3d-origin="-23.963811 : 566.45561 : 1"
       id="perspective4243" />
    <filter
       style="color-interpolation-filters:sRGB"
       inkscape:label="Drop Shadow"
       id="filter4307">
      <feFlood
         flood-opacity="0.498039"
         flood-color="rgb(0,0,0)"
         result="flood"
         id="feFlood4309" />
      <feComposite
         in="flood"
         in2="SourceGraphic"
         operator="in"
         result="composite1"
         id="feComposite4311" />
      <feGaussianBlur
         in="composite1"
         stdDeviation="3"
         result="blur"
         id="feGaussianBlur4313" />
      <feOffset
         dx="6"
         dy="6"
         result="offset"
         id="feOffset4315" />
      <feComposite
         in="SourceGraphic"
         in2="offset"
         operator="over"
         result="composite2"
         id="feComposite4317" />
    </filter>
    <filter
       style="color-interpolation-filters:sRGB"
       inkscape:label="Drop Shadow"
       id="filter4307-4">
      <feFlood
         flood-opacity="0.498039"
         flood-color="rgb(0,0,0)"
         result="flood"
         id="feFlood4309-6" />
      <feComposite
         in="flood"
         in2="SourceGraphic"
         operator="in"
         result="composite1"
         id="feComposite4311-8" />
      <feGaussianBlur
         in="composite1"
         stdDeviation="3"
         result="blur"
         id="feGaussianBlur4313-3" />
      <feOffset
         dx="6"
         dy="6"
         result="offset"
         id="feOffset4315-2" />
      <feComposite
         in="SourceGraphic"
         in2="offset"
         operator="over"
         result="composite2"
         id="feComposite4317-3" />
    </filter>
  </defs>
  <sodipodi:namedview
     id="base"
     pagecolor="#ffffff"
     bordercolor="#e230ae"
     borderopacity="1"
     inkscape:pageopacity="0.0"
     inkscape:pageshadow="2"
     inkscape:zoom="1.28"
     inkscape:cx="424.03423"
     inkscape:cy="131.43389"
     inkscape:document-units="px"
     inkscape:current-layer="layer1"
     showgrid="false"
     showguides="false"
     inkscape:window-width="1920"
     inkscape:window-height="1027"
     inkscape:window-x="0"
     inkscape:window-y="0"
     inkscape:window-maximized="1"
     borderlayer="true" />
  <metadata
     id="metadata7">
    <rdf:RDF>
      <cc:Work
         rdf:about="">
        <dc:format>image/svg+xml</dc:format>
        <dc:type
           rdf:resource="http://purl.org/dc/dcmitype/StillImage" />
        <dc:title></dc:title>
      </cc:Work>
    </rdf:RDF>
  </metadata>
  <g
     inkscape:label="Calque 1"
     inkscape:groupmode="layer"
     id="layer1"
     transform="translate(0,-793.70087)">
    <rect
       style="opacity:1;fill:#ffffff;fill-opacity:1;stroke:#000000;stroke-width:0.79994673;stroke-linejoin:round;stroke-miterlimit:4;stroke-dasharray:none;stroke-opacity:1"
       id="rect4793"
       width="763.31366"
       height="287.66074"
       x="-7.1090851"
       y="780.85559"
       ry="0.39336294" />
    <circle
       style="opacity:1;fill:none;fill-opacity:1;stroke:#000000;stroke-width:2.16892982;stroke-linejoin:round;stroke-miterlimit:4;stroke-dasharray:none;stroke-opacity:1"
       id="path4537-3"
       cx="513.9538"
       cy="668.3324"
       r="9.7739105"
       transform="matrix(0.8932834,0.4494939,-0.4494939,0.8932834,0,0)" />
    <rect
       style="opacity:1;fill:none;fill-opacity:1;stroke:#000000;stroke-width:0.82411224;stroke-linejoin:round;stroke-miterlimit:4;stroke-dasharray:none;stroke-opacity:1"
       id="rect4539-0"
       width="29.920153"
       height="7.4579444"
       x="474.6272"
       y="664.61566"
       ry="0.83259511"
       transform="matrix(0.8932834,0.4494939,-0.4494939,0.8932834,0,0)" />
    <rect
       style="opacity:1;fill:none;fill-opacity:1;stroke:#000000;stroke-width:0;stroke-linejoin:round;stroke-miterlimit:4;stroke-dasharray:none;stroke-opacity:1"
       id="rect4541-8"
       width="0.14149019"
       height="8.0649405"
       x="468.95981"
       y="669.16089"
       transform="matrix(0.8932834,0.4494939,-0.4494939,0.8932834,0,0)" />
    <rect
       style="opacity:1;fill:none;fill-opacity:1;stroke:#000000;stroke-width:0.79909134;stroke-linejoin:round;stroke-miterlimit:4;stroke-dasharray:none;stroke-opacity:1"
       id="rect4545-7"
       width="3.5345969"
       height="5.8568363"
       x="476.89362"
       y="672.12201"
       ry="0"
       transform="matrix(0.8932834,0.4494939,-0.4494939,0.8932834,0,0)" />
    <rect
       style="opacity:1;fill:none;fill-opacity:1;stroke:#000000;stroke-width:0.88055372;stroke-linejoin:round;stroke-miterlimit:4;stroke-dasharray:none;stroke-opacity:1"
       id="rect4545-9-6"
       width="4.3477035"
       height="8.8874989"
       x="482.27811"
       y="672.02557"
       ry="0.042884473"
       transform="matrix(0.8932834,0.4494939,-0.4494939,0.8932834,0,0)" />
    <rect
       style="opacity:1;fill:#ffffff;fill-opacity:1;stroke:none;stroke-width:1.69500005;stroke-linejoin:round;stroke-miterlimit:4;stroke-dasharray:none;stroke-opacity:1"
       id="rect4606"
       width="3.4671965"
       height="5.0921173"
       x="-486.18802"
       y="668.39203"
       transform="matrix(-0.8932834,-0.4494939,-0.4494939,0.8932834,0,0)" />
    <rect
       style="opacity:1;fill:#ffffff;fill-opacity:1;stroke:none;stroke-width:1.69500005;stroke-linejoin:round;stroke-miterlimit:4;stroke-dasharray:none;stroke-opacity:1"
       id="rect4608"
       width="2.7365863"
       height="2.9812002"
       x="-480.02713"
       y="669.97894"
       transform="matrix(-0.8932834,-0.4494939,-0.4494939,0.8932834,0,0)" />
    <path
       style="opacity:1;fill:#ffffff;fill-opacity:1;stroke:none;stroke-width:1.69500005;stroke-linejoin:round;stroke-miterlimit:4;stroke-dasharray:none;stroke-opacity:1"
       d="m 155.80558,836.19932 c 3.10745,1.09413 6.64709,0.29782 8.98531,-2.02141 0.75905,-0.75288 1.01634,-1.11698 1.58713,-2.24591 0.57158,-1.13091 0.70934,-1.53252 0.86785,-2.5339 0.52516,-3.31731 -0.94508,-6.69361 -3.72799,-8.56105 -0.62373,-0.41857 -1.91018,-1.00683 -2.56516,-1.17295 -1.72322,-0.43712 -3.30983,-0.38404 -4.97398,0.16643 -1.6831,0.55673 -2.98296,1.46261 -4.11452,2.86742 -0.3152,0.39132 -0.44232,0.6039 -0.87343,1.46065 -0.5696,1.13198 -0.72265,1.60725 -0.86881,2.69793 -0.44105,3.29112 1.03113,6.56275 3.77326,8.38535 0.4491,0.2985 1.41788,0.78404 1.91031,0.9575 l 0,0 z m 4.83622,-8.66101 c -0.12779,-0.10108 -0.3715,-0.36332 -0.54154,-0.58281 -0.78524,-1.01354 -0.87458,-2.43787 -0.22356,-3.56406 0.3289,-0.56894 0.69193,-0.93086 1.2385,-1.23467 1.03438,-0.57494 2.20549,-0.56153 3.23439,0.0371 0.73257,0.4261 1.18948,0.99589 1.45328,1.81217 0.43513,1.3465 -0.0382,2.78564 -1.19932,3.64682 -0.69318,0.5141 -1.77287,0.73228 -2.63312,0.53209 -0.36454,-0.0848 -1.02428,-0.40587 -1.32863,-0.64652 z"
       id="path4610"
       inkscape:connector-curvature="0" />
    <path
       style="opacity:1;fill:#000000;fill-opacity:1;stroke:none;stroke-width:1.69500005;stroke-linejoin:round;stroke-miterlimit:4;stroke-dasharray:none;stroke-opacity:1"
       d="m 155.62708,836.41068 c 1.87093,0.66513 3.8629,0.68562 5.81648,0.0598 1.72629,-0.55297 3.12294,-1.50397 4.26333,-2.90298 0.32015,-0.39277 0.44903,-0.60914 0.91833,-1.54178 0.4687,-0.93144 0.56632,-1.16535 0.69026,-1.65394 0.67095,-2.64483 0.14474,-5.3992 -1.45265,-7.60376 -0.83768,-1.15612 -1.71033,-1.90734 -3.06882,-2.6419 -0.77306,-0.41799 -1.00869,-0.52212 -1.58004,-0.69857 -3.22763,-0.99652 -6.71818,-0.17036 -9.07081,2.14694 -0.7534,0.74207 -1.07725,1.20096 -1.64779,2.3348 -0.57495,1.1426 -0.73673,1.63817 -0.891,2.72925 -0.47519,3.36079 1.10808,6.84574 3.97217,8.74316 0.50162,0.33233 1.49939,0.83296 2.05065,1.02873 l -1e-5,10e-6 z m 4.67362,-9.21592 c -0.5963,-0.60943 -0.98319,-1.57659 -0.97179,-2.42936 0.029,-2.16493 2.12221,-3.73197 4.23476,-3.17022 2.09303,0.55658 3.17474,2.878 2.22268,4.77004 -0.26733,0.53128 -0.50199,0.81152 -0.99611,1.1896 -0.75536,0.57799 -1.84642,0.80919 -2.80481,0.59433 -0.4586,-0.10282 -1.34008,-0.60218 -1.68473,-0.95439 z"
       id="path4612"
       inkscape:connector-curvature="0" />
    <circle
       style="opacity:1;fill:#000000;fill-opacity:1;stroke:#000000;stroke-width:2.16892982;stroke-linejoin:round;stroke-miterlimit:4;stroke-dasharray:none;stroke-opacity:1"
       id="path4537-3-2"
       cx="-600.42566"
       cy="655.60266"
       r="9.7739105"
       transform="matrix(-0.94439043,-0.32882628,-0.32882628,0.94439043,0,0)" />
    <rect
       style="opacity:1;fill:none;fill-opacity:1;stroke:#000000;stroke-width:0.82411224;stroke-linejoin:round;stroke-miterlimit:4;stroke-dasharray:none;stroke-opacity:1"
       id="rect4539-0-4"
       width="29.920153"
       height="7.4579444"
       x="-639.75232"
       y="651.88586"
       ry="0.83259511"
       transform="matrix(-0.94439043,-0.32882628,-0.32882628,0.94439043,0,0)" />
    <rect
       style="opacity:1;fill:none;fill-opacity:1;stroke:#000000;stroke-width:0.79909134;stroke-linejoin:round;stroke-miterlimit:4;stroke-dasharray:none;stroke-opacity:1"
       id="rect4545-7-0"
       width="3.5345969"
       height="5.8568363"
       x="-637.48584"
       y="659.39227"
       ry="0"
       transform="matrix(-0.94439043,-0.32882628,-0.32882628,0.94439043,0,0)" />
    <rect
       style="opacity:1;fill:none;fill-opacity:1;stroke:#000000;stroke-width:0.88055372;stroke-linejoin:round;stroke-miterlimit:4;stroke-dasharray:none;stroke-opacity:1"
       id="rect4545-9-6-6"
       width="4.3477035"
       height="8.8874989"
       x="-632.10144"
       y="659.2959"
       ry="0.042884473"
       transform="matrix(-0.94439043,-0.32882628,-0.32882628,0.94439043,0,0)" />
    <rect
       style="opacity:1;fill:#ffffff;fill-opacity:1;stroke:none;stroke-width:1.69500005;stroke-linejoin:round;stroke-miterlimit:4;stroke-dasharray:none;stroke-opacity:1"
       id="rect4606-8"
       width="3.4671965"
       height="5.0921173"
       x="628.19147"
       y="655.66229"
       transform="matrix(0.94439043,0.32882628,-0.32882628,0.94439043,0,0)" />
    <rect
       style="opacity:1;fill:#ffffff;fill-opacity:1;stroke:none;stroke-width:1.69500005;stroke-linejoin:round;stroke-miterlimit:4;stroke-dasharray:none;stroke-opacity:1"
       id="rect4608-5"
       width="2.7365863"
       height="2.9812002"
       x="634.35242"
       y="657.24921"
       transform="matrix(0.94439043,0.32882628,-0.32882628,0.94439043,0,0)" />
    <path
       style="opacity:1;fill:#ffffff;fill-opacity:1;stroke:none;stroke-width:1.69500005;stroke-linejoin:round;stroke-miterlimit:4;stroke-dasharray:none;stroke-opacity:1"
       d="m 347.60013,824.3393 c -2.94803,-1.47058 -4.83896,-4.56694 -4.80012,-7.86004 0.0124,-1.06903 0.095,-1.50718 0.50871,-2.70266 0.41455,-1.1974 0.60715,-1.57579 1.21606,-2.3864 2.01723,-2.68538 5.46516,-3.97865 8.74278,-3.27925 0.73463,0.15675 2.05225,0.67141 2.62733,1.02625 1.51297,0.93352 2.57879,2.11002 3.34136,3.68828 0.77125,1.59624 1.02506,3.16015 0.80338,4.95034 -0.0617,0.49867 -0.12597,0.73789 -0.44135,1.64365 -0.41667,1.19675 -0.65153,1.63737 -1.33319,2.50124 -2.0569,2.60674 -5.43106,3.82578 -8.6481,3.12447 -0.52687,-0.11486 -1.54966,-0.47282 -2.01686,-0.70583 l 0,0 z m 2.85557,-9.49988 c 0.16152,0.0214 0.51941,0.014 0.79541,-0.0166 1.27432,-0.14124 2.35945,-1.06813 2.71538,-2.31932 0.17978,-0.6321 0.18712,-1.14467 0.0249,-1.74863 -0.30678,-1.14294 -1.13127,-1.97477 -2.27709,-2.29731 -0.81579,-0.22966 -1.54291,-0.16136 -2.31277,0.21715 -1.26982,0.62436 -1.97418,1.96564 -1.78473,3.39884 0.11304,0.85558 0.70762,1.78286 1.44995,2.26143 0.31455,0.2028 1.00422,0.45326 1.38881,0.50441 z"
       id="path4610-4"
       inkscape:connector-curvature="0" />
    <path
       style="opacity:1;fill:#ffffff;fill-opacity:1;stroke:none;stroke-width:1.69500005;stroke-linejoin:round;stroke-miterlimit:4;stroke-dasharray:none;stroke-opacity:1"
       d="m 347.5725,824.61456 c -1.7795,-0.88096 -3.18026,-2.2974 -4.09011,-4.13593 -0.804,-1.62463 -1.09278,-3.28946 -0.88139,-5.08196 0.0593,-0.50324 0.12503,-0.74635 0.46835,-1.73235 0.34289,-0.98474 0.44299,-1.21761 0.70761,-1.64659 1.43278,-2.32216 3.77722,-3.86072 6.47206,-4.24738 1.41323,-0.20276 2.55997,-0.0987 4.03279,0.36589 0.8381,0.26441 1.07685,0.36118 1.60113,0.64877 2.96152,1.62483 4.7969,4.70668 4.76948,8.0088 -0.009,1.05744 -0.11298,1.60934 -0.53038,2.80806 -0.4206,1.20796 -0.66396,1.66899 -1.34028,2.53895 -2.08319,2.67976 -5.68787,3.96745 -9.04346,3.2306 -0.5877,-0.12906 -1.64152,-0.49734 -2.1657,-0.75705 l 0,10e-6 z m 3.36728,-9.7692 c 0.85263,0.004 1.81644,-0.39085 2.42101,-0.99238 1.53475,-1.52718 1.2038,-4.12097 -0.6696,-5.24739 -1.85607,-1.11601 -4.27604,-0.27769 -4.97254,1.7226 -0.19555,0.56167 -0.23358,0.9252 -0.16131,1.54316 0.11045,0.94469 0.70354,1.8892 1.52472,2.42805 0.39297,0.25783 1.36495,0.54349 1.85772,0.54596 z"
       id="path4612-9"
       inkscape:connector-curvature="0" />
    <circle
       transform="matrix(-0.8932834,0.44949389,0.44949389,0.8932834,0,0)"
       r="9.7739105"
       cy="1082.0486"
       cx="2.086237"
       id="path4537-3-5"
       style="opacity:1;fill:none;fill-opacity:1;stroke:#000000;stroke-width:2.16892982;stroke-linejoin:round;stroke-miterlimit:4;stroke-dasharray:none;stroke-opacity:1" />
    <rect
       transform="matrix(-0.8932834,0.44949389,0.44949389,0.8932834,0,0)"
       ry="0.83259511"
       y="1078.3317"
       x="-37.240398"
       height="7.4579444"
       width="29.920151"
       id="rect4539-0-0"
       style="opacity:1;fill:none;fill-opacity:1;stroke:#000000;stroke-width:0.82411224;stroke-linejoin:round;stroke-miterlimit:4;stroke-dasharray:none;stroke-opacity:1" />
    <rect
       transform="matrix(-0.8932834,0.44949389,0.44949389,0.8932834,0,0)"
       y="1082.877"
       x="-42.907768"
       height="8.0649405"
       width="0.14149019"
       id="rect4541-8-3"
       style="opacity:1;fill:none;fill-opacity:1;stroke:#000000;stroke-width:0;stroke-linejoin:round;stroke-miterlimit:4;stroke-dasharray:none;stroke-opacity:1" />
    <rect
       transform="matrix(-0.8932834,0.44949389,0.44949389,0.8932834,0,0)"
       ry="0"
       y="1085.8381"
       x="-34.973988"
       height="5.8568363"
       width="3.5345972"
       id="rect4545-7-6"
       style="opacity:1;fill:none;fill-opacity:1;stroke:#000000;stroke-width:0.7990914;stroke-linejoin:round;stroke-miterlimit:4;stroke-dasharray:none;stroke-opacity:1" />
    <rect
       transform="matrix(-0.8932834,0.44949389,0.44949389,0.8932834,0,0)"
       ry="0.042884473"
       y="1085.7417"
       x="-29.589499"
       height="8.8874989"
       width="4.3477035"
       id="rect4545-9-6-1"
       style="opacity:1;fill:none;fill-opacity:1;stroke:#000000;stroke-width:0.88055372;stroke-linejoin:round;stroke-miterlimit:4;stroke-dasharray:none;stroke-opacity:1" />
    <rect
       transform="matrix(0.8932834,-0.44949389,0.44949389,0.8932834,0,0)"
       y="1082.108"
       x="25.679581"
       height="5.0921173"
       width="3.4671965"
       id="rect4606-0"
       style="opacity:1;fill:#ffffff;fill-opacity:1;stroke:none;stroke-width:1.69500005;stroke-linejoin:round;stroke-miterlimit:4;stroke-dasharray:none;stroke-opacity:1" />
    <rect
       transform="matrix(0.8932834,-0.44949389,0.44949389,0.8932834,0,0)"
       y="1083.6951"
       x="31.840475"
       height="2.9812002"
       width="2.7365863"
       id="rect4608-6"
       style="opacity:1;fill:#ffffff;fill-opacity:1;stroke:none;stroke-width:1.69500005;stroke-linejoin:round;stroke-miterlimit:4;stroke-dasharray:none;stroke-opacity:1" />
    <path
       inkscape:connector-curvature="0"
       id="path4610-3"
       d="m 487.39989,975.68323 c -3.10747,1.09413 -6.64713,0.29783 -8.98531,-2.02141 -0.75905,-0.7529 -1.01637,-1.117 -1.58716,-2.24595 -0.57156,-1.13085 -0.70933,-1.53252 -0.86784,-2.53389 -0.52515,-3.3173 0.94508,-6.69358 3.72797,-8.56103 0.62376,-0.41859 1.91019,-1.00681 2.56519,-1.17297 1.72322,-0.43711 3.3098,-0.38403 4.97394,0.16643 1.68312,0.55676 2.983,1.46263 4.11453,2.86747 0.31522,0.39132 0.44233,0.60389 0.87343,1.46061 0.56959,1.132 0.72267,1.60728 0.86882,2.69794 0.44104,3.29113 -1.03111,6.56275 -3.77323,8.38535 -0.44911,0.29851 -1.41788,0.78403 -1.91034,0.9575 l 0,0 z m -4.83622,-8.66104 c 0.12778,-0.10104 0.3715,-0.36333 0.5415,-0.58279 0.78527,-1.01353 0.87462,-2.43787 0.22359,-3.56407 -0.32892,-0.56893 -0.69194,-0.93086 -1.23851,-1.23464 -1.03438,-0.57498 -2.20549,-0.56158 -3.23438,0.0373 -0.73261,0.42608 -1.18947,0.99588 -1.45332,1.81214 -0.43508,1.34649 0.0383,2.78564 1.19936,3.64685 0.69319,0.51409 1.77283,0.73225 2.63311,0.53209 0.36452,-0.0848 1.02429,-0.40586 1.32865,-0.64652 z"
       style="opacity:1;fill:#ffffff;fill-opacity:1;stroke:none;stroke-width:1.69500005;stroke-linejoin:round;stroke-miterlimit:4;stroke-dasharray:none;stroke-opacity:1" />
    <path
       inkscape:connector-curvature="0"
       id="path4612-2"
       d="m 487.57837,975.89456 c -1.87092,0.66515 -3.86289,0.68563 -5.81648,0.0599 -1.72632,-0.55294 -3.12294,-1.50397 -4.26332,-2.90297 -0.32018,-0.39276 -0.44905,-0.60912 -0.91833,-1.54178 -0.46872,-0.93142 -0.56634,-1.16537 -0.69029,-1.65395 -0.67095,-2.64481 -0.1447,-5.39919 1.45264,-7.60374 0.83768,-1.15611 1.71034,-1.90734 3.06883,-2.64191 0.77306,-0.41797 1.00871,-0.52211 1.58006,-0.69857 3.22765,-0.99651 6.71816,-0.17036 9.07078,2.14692 0.75341,0.74207 1.07726,1.20096 1.64784,2.33482 0.57492,1.1426 0.73669,1.63816 0.89097,2.72924 0.47518,3.36081 -1.1081,6.84573 -3.97216,8.74319 -0.50162,0.33229 -1.49941,0.83292 -2.05064,1.02868 l 0,6e-5 z m -4.67362,-9.21589 c 0.59629,-0.60943 0.98316,-1.5766 0.97178,-2.42939 -0.029,-2.16492 -2.1222,-3.73195 -4.23476,-3.17022 -2.09302,0.55661 -3.17473,2.87803 -2.22266,4.77005 0.26731,0.53126 0.50197,0.81151 0.99609,1.18963 0.75537,0.57798 1.84645,0.80918 2.80482,0.59433 0.45858,-0.10285 1.34008,-0.60219 1.68473,-0.9544 z"
       style="opacity:1;fill:#000000;fill-opacity:1;stroke:none;stroke-width:1.69500005;stroke-linejoin:round;stroke-miterlimit:4;stroke-dasharray:none;stroke-opacity:1" />
    <circle
       transform="matrix(0.94439043,-0.32882626,0.32882626,0.94439043,0,0)"
       r="9.7739105"
       cy="992.15839"
       cx="-54.400696"
       id="path4537-3-2-0"
       style="opacity:1;fill:#000000;fill-opacity:1;stroke:#000000;stroke-width:2.16892982;stroke-linejoin:round;stroke-miterlimit:4;stroke-dasharray:none;stroke-opacity:1" />
    <rect
       transform="matrix(0.94439043,-0.32882626,0.32882626,0.94439043,0,0)"
       ry="0.83259511"
       y="988.44159"
       x="-93.727295"
       height="7.4579444"
       width="29.920151"
       id="rect4539-0-4-6"
       style="opacity:1;fill:none;fill-opacity:1;stroke:#000000;stroke-width:0.82411224;stroke-linejoin:round;stroke-miterlimit:4;stroke-dasharray:none;stroke-opacity:1" />
    <rect
       transform="matrix(0.94439043,-0.32882626,0.32882626,0.94439043,0,0)"
       ry="0"
       y="995.94794"
       x="-91.460785"
       height="5.8568363"
       width="3.5345974"
       id="rect4545-7-0-1"
       style="opacity:1;fill:none;fill-opacity:1;stroke:#000000;stroke-width:0.7990914;stroke-linejoin:round;stroke-miterlimit:4;stroke-dasharray:none;stroke-opacity:1" />
    <rect
       transform="matrix(0.94439043,-0.32882626,0.32882626,0.94439043,0,0)"
       ry="0.042884473"
       y="995.85162"
       x="-86.076401"
       height="8.8874989"
       width="4.3477035"
       id="rect4545-9-6-6-5"
       style="opacity:1;fill:none;fill-opacity:1;stroke:#000000;stroke-width:0.88055372;stroke-linejoin:round;stroke-miterlimit:4;stroke-dasharray:none;stroke-opacity:1" />
    <rect
       transform="matrix(-0.94439043,0.32882626,0.32882626,0.94439043,0,0)"
       y="992.21802"
       x="82.166504"
       height="5.0921173"
       width="3.4671965"
       id="rect4606-8-5"
       style="opacity:1;fill:#ffffff;fill-opacity:1;stroke:none;stroke-width:1.69500005;stroke-linejoin:round;stroke-miterlimit:4;stroke-dasharray:none;stroke-opacity:1" />
    <rect
       transform="matrix(-0.94439043,0.32882626,0.32882626,0.94439043,0,0)"
       y="993.80505"
       x="88.327362"
       height="2.9812002"
       width="2.7365863"
       id="rect4608-5-4"
       style="opacity:1;fill:#ffffff;fill-opacity:1;stroke:none;stroke-width:1.69500005;stroke-linejoin:round;stroke-miterlimit:4;stroke-dasharray:none;stroke-opacity:1" />
    <path
       inkscape:connector-curvature="0"
       id="path4610-4-7"
       d="m 278.72906,962.63189 c 2.94801,-1.47057 4.83899,-4.56692 4.80013,-7.86003 -0.0123,-1.06904 -0.095,-1.50718 -0.50871,-2.70266 -0.41457,-1.1974 -0.60717,-1.57579 -1.2161,-2.38641 -2.01719,-2.68537 -5.46515,-3.97864 -8.74277,-3.27924 -0.73463,0.15675 -2.05224,0.6714 -2.6273,1.02625 -1.51297,0.93352 -2.57882,2.11001 -3.34137,3.68827 -0.77124,1.59625 -1.02505,3.16015 -0.80341,4.95035 0.0617,0.49867 0.12597,0.73788 0.44135,1.64365 0.41669,1.19674 0.65155,1.63736 1.33321,2.50124 2.05691,2.60673 5.43105,3.82578 8.64808,3.12447 0.52689,-0.11486 1.54969,-0.47283 2.01691,-0.70583 l 0,0 z m -2.85558,-9.49987 c -0.16151,0.0213 -0.51942,0.014 -0.79539,-0.0166 -1.27432,-0.14124 -2.35949,-1.06813 -2.71538,-2.31931 -0.17978,-0.63211 -0.18713,-1.14467 -0.025,-1.74863 0.30678,-1.14295 1.13126,-1.97477 2.27707,-2.29731 0.81577,-0.22966 1.54293,-0.16137 2.31275,0.21714 1.26987,0.62436 1.97419,1.96565 1.78477,3.39885 -0.11307,0.85557 -0.70761,1.78285 -1.44995,2.26142 -0.31458,0.20281 -1.00421,0.45327 -1.38885,0.50442 z"
       style="opacity:1;fill:#ffffff;fill-opacity:1;stroke:none;stroke-width:1.69500005;stroke-linejoin:round;stroke-miterlimit:4;stroke-dasharray:none;stroke-opacity:1" />
    <path
       inkscape:connector-curvature="0"
       id="path4612-9-6"
       d="m 278.75667,962.90716 c 1.77951,-0.88097 3.18025,-2.2974 4.09012,-4.13594 0.80401,-1.62462 1.09277,-3.28945 0.88138,-5.08195 -0.0593,-0.50324 -0.12503,-0.74635 -0.46833,-1.73235 -0.34291,-0.98474 -0.44299,-1.21761 -0.70764,-1.64659 -1.43276,-2.32216 -3.77718,-3.86073 -6.47203,-4.24738 -1.41322,-0.20277 -2.55997,-0.0987 -4.03279,0.36589 -0.83812,0.2644 -1.07686,0.36118 -1.60113,0.64877 -2.96154,1.62483 -4.79689,4.70668 -4.7695,8.0088 0.009,1.05745 0.11301,1.60934 0.53039,2.80806 0.4206,1.20796 0.66397,1.66899 1.34027,2.53895 2.08321,2.67976 5.68786,3.96744 9.04348,3.23059 0.58771,-0.12905 1.64154,-0.49734 2.16571,-0.75705 l 0,10e-6 z m -3.36728,-9.76921 c -0.8526,0.005 -1.81645,-0.39084 -2.421,-0.99238 -1.53477,-1.52717 -1.20379,-4.12096 0.6696,-5.24739 1.85608,-1.11601 4.27606,-0.27768 4.97254,1.72261 0.19556,0.56167 0.23357,0.92519 0.16133,1.54316 -0.11046,0.94469 -0.70357,1.8892 -1.52474,2.42804 -0.39294,0.25784 -1.36495,0.5435 -1.85773,0.54596 z"
       style="opacity:1;fill:#ffffff;fill-opacity:1;stroke:none;stroke-width:1.69500005;stroke-linejoin:round;stroke-miterlimit:4;stroke-dasharray:none;stroke-opacity:1" />
    <text
       sodipodi:linespacing="125%"
       id="text4557"
       y="863.84473"
       x="108.69359"
       style="font-style:normal;font-weight:normal;font-size:12.69100761px;line-height:125%;font-family:sans-serif;letter-spacing:0px;word-spacing:0px;fill:#000000;fill-opacity:1;stroke:none;stroke-width:1px;stroke-linecap:butt;stroke-linejoin:miter;stroke-opacity:1"
       xml:space="preserve"><tspan
         y="863.84473"
         x="108.69359"
         id="tspan4559"
         sodipodi:role="line">Chiffrement</tspan><tspan
         id="tspan4561"
         y="879.7085"
         x="108.69359"
         sodipodi:role="line">avec clé de</tspan><tspan
         id="tspan4590"
         y="895.57227"
         x="108.69359"
         sodipodi:role="line">session</tspan></text>
    <text
       sodipodi:linespacing="125%"
       id="text4557-5"
       y="862.09753"
       x="318.44363"
       style="font-style:normal;font-weight:normal;font-size:12.38108253px;line-height:125%;font-family:sans-serif;letter-spacing:0px;word-spacing:0px;fill:#000000;fill-opacity:1;stroke:none;stroke-width:1px;stroke-linecap:butt;stroke-linejoin:miter;stroke-opacity:1"
       xml:space="preserve"><tspan
         y="862.09753"
         x="318.44363"
         id="tspan4559-6"
         sodipodi:role="line">Compression &amp; </tspan><tspan
         id="tspan4584"
         y="877.57391"
         x="318.44363"
         sodipodi:role="line">chiffrement</tspan><tspan
         id="tspan4561-9"
         y="893.05023"
         x="318.44363"
         sodipodi:role="line">avec clé publique</tspan></text>
    <text
       sodipodi:linespacing="125%"
       id="text4557-3"
       y="993.9845"
       x="224.77792"
       style="font-style:normal;font-weight:normal;font-size:12.69100761px;line-height:125%;font-family:sans-serif;letter-spacing:0px;word-spacing:0px;fill:#000000;fill-opacity:1;stroke:none;stroke-width:1px;stroke-linecap:butt;stroke-linejoin:miter;stroke-opacity:1"
       xml:space="preserve"><tspan
         id="tspan4561-4"
         y="993.9845"
         x="224.77792"
         sodipodi:role="line">Récupération</tspan><tspan
         id="tspan4590-5"
         y="1009.8483"
         x="224.77792"
         sodipodi:role="line">de la clé de</tspan><tspan
         id="tspan4626"
         y="1025.712"
         x="224.77792"
         sodipodi:role="line">session avec</tspan><tspan
         id="tspan4665"
         y="1041.5758"
         x="224.77792"
         sodipodi:role="line">clé privée</tspan></text>
    <text
       sodipodi:linespacing="125%"
       id="text4557-3-2"
       y="1001.9246"
       x="456.33527"
       style="font-style:normal;font-weight:normal;font-size:12.69100761px;line-height:125%;font-family:sans-serif;letter-spacing:0px;word-spacing:0px;fill:#000000;fill-opacity:1;stroke:none;stroke-width:1px;stroke-linecap:butt;stroke-linejoin:miter;stroke-opacity:1"
       xml:space="preserve"><tspan
         id="tspan4659"
         y="1001.9246"
         x="456.33527"
         sodipodi:role="line">Déchiffrement </tspan><tspan
         id="tspan4667"
         y="1017.7884"
         x="456.33527"
         sodipodi:role="line">avec clé de</tspan><tspan
         id="tspan4669"
         y="1033.6521"
         x="456.33527"
         sodipodi:role="line">session</tspan></text>
    <path
       sodipodi:nodetypes="csssssssccccccsccccccccccccccccscccccccccccccc"
       inkscape:connector-curvature="0"
       d="m 541.94511,826.60711 -84.48586,0 c -4.67986,0 -8.49,3.81015 -8.49,8.49 l 0,51.78902 c 0,4.70056 3.81014,8.49 8.49,8.49 l 84.48586,0 c 4.70057,0 8.49001,-3.78944 8.49001,-8.49 l 0,-51.78902 c 0,-4.67985 -3.78944,-8.49 -8.49001,-8.49 l 0,0 0,0 z m -2.02931,6.0776 -34.14298,29.41815 c -2.94044,2.61947 -5.1147,3.92403 -6.5228,3.92403 -1.4081,0 -3.58237,-1.2942 -6.52281,-3.92403 l -33.69081,-29.87032 80.8794,0.45217 0,0 -0.45217,-0.45217 z m -84.62047,52.3067 -0.45216,-47.24036 26.2983,23.07831 -25.84614,24.16205 0,0 0,0 z m 4.41066,4.29676 25.96002,-23.89285 4.32784,3.78944 c 2.51593,2.19498 5.61168,3.32353 9.25617,3.32353 3.66519,0 6.74023,-1.12855 9.26652,-3.32353 l 4.31748,-3.78944 26.86435,23.89285 -79.99238,0 0,0 0,0 z m 83.96123,-4.74893 -26.2983,-23.72024 26.2983,-23.07831 0.45216,47.25072 0,0 0,0 z"
       id="path4727" />
    <path
       sodipodi:nodetypes="csssssssccccccsccccccccccccccccscccccccccccccc"
       inkscape:connector-curvature="0"
       d="m 293.30207,825.6098 -84.48586,0 c -4.67986,0 -8.49001,3.81015 -8.49001,8.49001 l 0,51.78901 c 0,4.70056 3.81015,8.49 8.49001,8.49 l 84.48586,0 c 4.70056,0 8.49,-3.78944 8.49,-8.49 l 0,-51.78901 c 0,-4.67986 -3.78944,-8.49001 -8.49,-8.49001 l 0,0 0,0 z m -2.02931,6.0776 -34.14298,29.41815 c -2.94044,2.61948 -5.1147,3.92404 -6.5228,3.92404 -1.4081,0 -3.58237,-1.29421 -6.52281,-3.92404 l -33.69081,-29.87031 80.8794,0.45216 0,0 -0.45216,-0.45216 z m -84.62047,52.3067 -0.45216,-47.24036 26.29829,23.07831 -25.84613,24.16205 0,0 0,0 z m 4.41066,4.29677 25.96002,-23.89286 4.32783,3.78944 c 2.51594,2.19498 5.61169,3.32353 9.25618,3.32353 3.66519,0 6.74023,-1.12855 9.26652,-3.32353 l 4.31748,-3.78944 26.86436,23.89286 -79.99239,0 0,0 0,0 z m 83.96122,-4.74894 -26.29829,-23.72023 26.29829,-23.07831 0.45217,47.25071 0,0 0,0 z"
       id="path4727-1" />
    <path
       sodipodi:nodetypes="csssssssccccccsccccccccccccccccscccccccccccccc"
       inkscape:connector-curvature="0"
       d="m 426.20941,959.7689 -84.48587,0 c -4.67986,0 -8.49001,3.81015 -8.49001,8.49001 l 0,51.78899 c 0,4.7006 3.81015,8.49 8.49001,8.49 l 84.48587,0 c 4.70056,0 8.49,-3.7894 8.49,-8.49 l 0,-51.78899 c 0,-4.67986 -3.78944,-8.49001 -8.49,-8.49001 l 0,0 0,0 z m -2.02932,6.0776 -34.14298,29.4181 c -2.94044,2.6195 -5.1147,3.9241 -6.5228,3.9241 -1.4081,0 -3.58237,-1.2942 -6.52281,-3.9241 l -33.69081,-29.87026 80.8794,0.45216 0,0 -0.45217,-0.45216 z m -84.62047,52.3067 -0.45216,-47.24036 26.2983,23.07826 -25.84614,24.1621 0,0 0,0 z m 4.41066,4.2968 25.96002,-23.8929 4.32784,3.7895 c 2.51593,2.1949 5.61168,3.3235 9.25617,3.3235 3.66519,0 6.74023,-1.1286 9.26652,-3.3235 l 4.31748,-3.7895 26.86435,23.8929 -79.99238,0 0,0 0,0 z m 83.96123,-4.749 -26.2983,-23.7202 26.2983,-23.07831 0.45217,47.25071 0,0 0,0 z"
       id="path4727-5" />
    <path
       sodipodi:nodetypes="csssssssccccccsccccccccccccccccscccccccccccccc"
       inkscape:connector-curvature="0"
       d="m 194.82047,960.40836 -84.48587,0 c -4.67986,0 -8.49,3.81014 -8.49,8.49 l 0,51.78904 c 0,4.7005 3.81014,8.49 8.49,8.49 l 84.48587,0 c 4.70056,0 8.49,-3.7895 8.49,-8.49 l 0,-51.78904 c 0,-4.67986 -3.78944,-8.49 -8.49,-8.49 l 0,0 0,0 z m -2.02932,6.07759 -34.14297,29.41815 c -2.94044,2.6195 -5.11471,3.924 -6.52281,3.924 -1.4081,0 -3.58237,-1.2942 -6.52281,-3.924 l -33.69081,-29.87031 80.8794,0.45216 0,0 -0.45216,-0.45216 z m -84.62047,52.30675 -0.45216,-47.24041 26.2983,23.07831 -25.84614,24.1621 0,0 0,0 z m 4.41066,4.2967 25.96003,-23.8928 4.32783,3.7894 c 2.51594,2.195 5.61168,3.3235 9.25617,3.3235 3.6652,0 6.74023,-1.1285 9.26653,-3.3235 l 4.31747,-3.7894 26.86436,23.8928 -79.99239,0 0,0 0,0 z m 83.96123,-4.7489 -26.29829,-23.7202 26.29829,-23.07836 0.45217,47.25076 0,0 0,0 z"
       id="path4727-28" />
    <g
       id="g4358"
       transform="matrix(0.28938622,0,0,0.28938622,-309.08495,636.15661)">
      <rect
         style="opacity:1;fill:#000000;fill-opacity:1;stroke:#000000;stroke-width:1.88464248;stroke-linejoin:round;stroke-miterlimit:4;stroke-dasharray:none;stroke-opacity:1"
         id="rect4239-35-2-6-3"
         width="101.55696"
         height="2.1200662"
         x="1228.0052"
         y="680.93518"
         ry="1.0600331" />
      <rect
         style="opacity:1;fill:#000000;fill-opacity:1;stroke:#000000;stroke-width:1.88464248;stroke-linejoin:round;stroke-miterlimit:4;stroke-dasharray:none;stroke-opacity:1"
         id="rect4239-35-2-6-8"
         width="101.55696"
         height="2.1200662"
         x="1228.0052"
         y="711.24768"
         ry="1.0600331" />
      <rect
         style="opacity:1;fill:#000000;fill-opacity:1;stroke:#000000;stroke-width:1.88464248;stroke-linejoin:round;stroke-miterlimit:4;stroke-dasharray:none;stroke-opacity:1"
         id="rect4239-35-2-6-7"
         width="101.55696"
         height="2.1200662"
         x="1228.0052"
         y="741.56018"
         ry="1.0600331" />
      <rect
         style="opacity:1;fill:#000000;fill-opacity:1;stroke:#000000;stroke-width:1.88464248;stroke-linejoin:round;stroke-miterlimit:4;stroke-dasharray:none;stroke-opacity:1"
         id="rect4239-35-2-6-4"
         width="101.55696"
         height="2.1200662"
         x="1228.0052"
         y="771.87268"
         ry="1.0600331" />
      <rect
         style="opacity:1;fill:#000000;fill-opacity:1;stroke:#000000;stroke-width:1.88464248;stroke-linejoin:round;stroke-miterlimit:4;stroke-dasharray:none;stroke-opacity:1"
         id="rect4239-35-2-6-93"
         width="101.55696"
         height="2.1200662"
         x="1228.0052"
         y="802.18518"
         ry="1.0600331" />
      <rect
         style="opacity:1;fill:#000000;fill-opacity:1;stroke:#000000;stroke-width:1.88464248;stroke-linejoin:round;stroke-miterlimit:4;stroke-dasharray:none;stroke-opacity:1"
         id="rect4239-35-2-6-1"
         width="101.55696"
         height="2.1200662"
         x="1228.0052"
         y="832.49768"
         ry="1.0600331" />
    </g>
    <rect
       ry="15.341413"
       y="819.92261"
       x="32.773933"
       height="71.554558"
       width="55.954834"
       id="rect4237-6-9-91"
       style="opacity:1;fill:none;fill-opacity:1;stroke:#000000;stroke-width:7.16057253;stroke-linejoin:round;stroke-miterlimit:4;stroke-dasharray:none;stroke-opacity:1" />
    <g
       id="g4358-8"
       transform="matrix(0.28938622,0,0,0.28938622,229.08566,777.0482)">
      <rect
         style="opacity:1;fill:#000000;fill-opacity:1;stroke:#000000;stroke-width:1.88464248;stroke-linejoin:round;stroke-miterlimit:4;stroke-dasharray:none;stroke-opacity:1"
         id="rect4239-35-2-6-3-7"
         width="101.55696"
         height="2.1200662"
         x="1228.0052"
         y="680.93518"
         ry="1.0600331" />
      <rect
         style="opacity:1;fill:#000000;fill-opacity:1;stroke:#000000;stroke-width:1.88464248;stroke-linejoin:round;stroke-miterlimit:4;stroke-dasharray:none;stroke-opacity:1"
         id="rect4239-35-2-6-8-9"
         width="101.55696"
         height="2.1200662"
         x="1228.0052"
         y="711.24768"
         ry="1.0600331" />
      <rect
         style="opacity:1;fill:#000000;fill-opacity:1;stroke:#000000;stroke-width:1.88464248;stroke-linejoin:round;stroke-miterlimit:4;stroke-dasharray:none;stroke-opacity:1"
         id="rect4239-35-2-6-7-3"
         width="101.55696"
         height="2.1200662"
         x="1228.0052"
         y="741.56018"
         ry="1.0600331" />
      <rect
         style="opacity:1;fill:#000000;fill-opacity:1;stroke:#000000;stroke-width:1.88464248;stroke-linejoin:round;stroke-miterlimit:4;stroke-dasharray:none;stroke-opacity:1"
         id="rect4239-35-2-6-4-8"
         width="101.55696"
         height="2.1200662"
         x="1228.0052"
         y="771.87268"
         ry="1.0600331" />
      <rect
         style="opacity:1;fill:#000000;fill-opacity:1;stroke:#000000;stroke-width:1.88464248;stroke-linejoin:round;stroke-miterlimit:4;stroke-dasharray:none;stroke-opacity:1"
         id="rect4239-35-2-6-93-8"
         width="101.55696"
         height="2.1200662"
         x="1228.0052"
         y="802.18518"
         ry="1.0600331" />
      <rect
         style="opacity:1;fill:#000000;fill-opacity:1;stroke:#000000;stroke-width:1.88464248;stroke-linejoin:round;stroke-miterlimit:4;stroke-dasharray:none;stroke-opacity:1"
         id="rect4239-35-2-6-1-4"
         width="101.55696"
         height="2.1200662"
         x="1228.0052"
         y="832.49768"
         ry="1.0600331" />
    </g>
    <rect
       ry="15.341413"
       y="960.81415"
       x="570.94458"
       height="71.554558"
       width="55.95483"
       id="rect4237-6-9-91-0"
       style="opacity:1;fill:none;fill-opacity:1;stroke:#000000;stroke-width:7.16057253;stroke-linejoin:round;stroke-miterlimit:4;stroke-dasharray:none;stroke-opacity:1" />
    <g
       transform="matrix(0.28938622,0,0,0.28938622,331.49453,750.56597)"
       id="g4948">
      <path
         transform="matrix(0.35778004,0,0,0.35778004,266.96907,-124.18409)"
         id="path4727-2"
         d="m 2967.4446,1070.1804 -816.0001,0 c -45.2,0 -82,36.8 -82,82 l 0,500.2 c 0,45.4 36.8,82 82,82 l 816.0001,0 c 45.4,0 82,-36.6 82,-82 l 0,-500.2 c 0,-45.2 -36.6,-82 -82,-82 l 0,0 0,0 z m -19.6,58.7 -329.7672,284.1328 c -28.4,25.3 -49.4,37.9 -63,37.9 -13.6,0 -34.6,-12.5 -63,-37.9 l -325.4001,-288.5 781.1673,4.3672 0,0 -4.3672,-4.3672 z m -817.3001,505.2 -4.3672,-456.2672 254.0001,222.9 -249.6329,233.3672 0,0 0,0 z m 42.6,41.5 250.7329,-230.7672 41.8,36.6 c 24.3,21.2 54.2,32.1 89.4,32.1 35.4,0 65.1,-10.9 89.5,-32.1 l 41.7,-36.6 259.4672,230.7672 -772.6001,0 0,0 0,0 z m 810.9329,-45.8672 -254,-229.1 254,-222.9 4.3672,456.3672 0,0 0,0 z"
         inkscape:connector-curvature="0"
         sodipodi:nodetypes="csssssssccccccsccccccccccccccccscccccccccccccc" />
      <rect
         style="opacity:1;fill:#000000;fill-opacity:1;stroke:#000000;stroke-width:24.74399948;stroke-linejoin:round;stroke-miterlimit:4;stroke-dasharray:none;stroke-opacity:1"
         id="rect4903"
         width="67.396118"
         height="1.1048543"
         x="907.57849"
         y="301.28891" />
      <rect
         style="opacity:1;fill:#000000;fill-opacity:1;stroke:#000000;stroke-width:24.74399948;stroke-linejoin:round;stroke-miterlimit:4;stroke-dasharray:none;stroke-opacity:1"
         id="rect4903-6"
         width="67.396118"
         height="1.1048543"
         x="892.66296"
         y="340.5112" />
      <rect
         style="opacity:1;fill:#000000;fill-opacity:1;stroke:#000000;stroke-width:24.8612957;stroke-linejoin:round;stroke-miterlimit:4;stroke-dasharray:none;stroke-opacity:1"
         id="rect4903-8"
         width="76.117653"
         height="0.98755723"
         x="903.77014"
         y="379.23978" />
    </g>
  </g>
</svg>
